83529 528087 470
492360 468291 413
184146 186749 329
774579 77934 509
524991 110580 470
464845 637252 509
754984 240519 509
956723 794535 525
714178 470678 509
702106 599475 509
731683 857377 525
205603 57028 383
691453 188715 509
720691 195308 509
394477 249122 441
276590 472532 449
161756 998162 525
105944 204904 383
498597 926371 525
789997 17377 509
900810 68313 525
698664 27860 509
473993 804607 509
578608 104352 470
757949 58747 509
470519 465599 413
169801 696204 509
899198 568323 525
158448 597733 470
458086 712298 509
886980 950231 507
285676 509248 449
133857 747150 509
204717 292060 443
581178 974033 525
852214 97211 525
628287 136179 509
188800 426797 449
185100 496817 449
58859 608734 470
461921 168316 449
820141 197074 509
144119 783024 509
852929 478826 525
945491 195947 525
972442 55903 525
470895 321905 449
799382 250350 509
514949 611886 452
450130 205580 449
354005 208905 443
651399 508685 509
806790 703366 504
825585 578809 509
310962 717986 509
700024 914565 525
419735 121722 449
52244 902491 525
125424 504285 449
432947 672736 509
859559 841291 419
665634 54188 509
770767 783510 437
535667 899737 525
30027 848551 525
829867 633912 504
697686 886839 525
655362 614130 509
284540 419651 449
435818 105439 449
585978 173615 470
349059 386278 423
153539 615200 470
815537 336285 509
848838 150950 525
887762 315186 525
355468 102707 443
720349 178882 509
424496 681953 509
118947 197030 383
876811 207962 525
604368 272093 470
374324 452452 449
368324 483396 449
950286 480026 525
767488 762319 375
233600 823363 509
854258 534685 525
918314 991244 507
432731 104970 449
889870 640183 525
252261 234882 368
749095 248165 509
679844 606350 509
195023 414928 449
155371 132480 375
31372 501837 449
84875 479854 449
205315 789487 509
325948 617591 470
266310 992735 525
485993 932308 525
850090 615975 525
361903 893012 525
165278 661519 509
60283 147216 375
310945 34445 443
363611 703730 509
815341 509299 509
953175 242470 525
789148 354369 509
77607 460383 449
20172 899190 525
546712 932952 525
391652 70099 443
741530 559982 509
18084 544416 470
271343 395072 441
190754 127537 383
962626 204716 525
18804 471440 449
958263 987290 458
922095 745989 525
61310 986276 525
792269 478412 509
176152 603921 470
606620 201487 470
856866 255085 525
179886 229705 386
854953 975184 507
657943 206227 509
449166 792015 509
683412 975388 525
234983 543872 470
257282 268893 407
937421 691291 525
337356 313995 384
487507 270717 449
557605 252602 470
635802 218892 509
462798 787121 509
591878 621301 447
605077 308166 470
722600 860414 525
105954 579738 470
704783 764615 424
716196 495538 509
604748 149024 470
776379 31911 509
60662 920573 525
955558 122132 525
946182 232777 525
418917 878572 525
427710 577627 470
333802 746499 509
700822 501495 509
212427 568090 470
927036 637536 525
185312 727484 509
79480 167911 383
359899 729607 509
901456 530504 525
368853 994675 525
311154 233832 407
652656 33052 509
862031 896859 445
22423 799617 509
843451 430004 525
480172 51810 449
872008 233293 525
346462 342192 441
115243 736360 509
765824 33355 509
489310 804605 509
283639 767816 509
784303 822987 468
180527 365435 443
989235 322088 525
688165 758776 504
826127 570213 509
156427 7166 383
564592 712472 509
413450 573104 470
578358 618117 447
307856 130858 443
191159 409194 443
450997 920182 525
164217 655499 509
463753 990689 525
321890 491868 449
814157 524564 509
730346 484371 509
460963 162989 449
843732 680684 525
852778 108990 525
194594 112689 383
975715 746011 525
367196 912383 525
492436 693698 509
905915 651574 525
338770 821424 509
881089 77489 525
654332 216082 509
76178 535040 470
719110 768401 468
444894 509796 444
175645 907623 525
344904 753404 509
646708 503928 509
408620 111432 443
269237 157482 443
134652 287595 443
290283 477284 449
184563 467975 449
318281 913575 525
504161 316227 449
149984 322552 443
511924 222426 449
89579 615354 470
839711 729267 525
462150 524076 470
337315 217828 443
384079 22318 443
202616 925494 525
841662 960840 507
755224 939908 525
737837 535849 509
588123 447672 470
851377 593003 525
488342 221388 449
434561 592126 470
218865 363453 443
393441 55622 443
822013 252335 509
315163 589835 470
317240 252251 407
821619 831873 419
981971 875153 507
12202 772561 509
529340 583024 452
178616 888779 525
962098 110786 525
646427 146197 509
70173 70404 312
770206 245395 509
932703 524844 525
419374 407685 449
945058 350257 525
194468 452681 449
312580 677351 509
978426 450634 525
925913 651067 525
572148 296255 470
843085 882483 432
367551 575026 470
300017 883955 525
541639 43002 470
543847 366546 470
419628 723651 509
783871 707200 468
878911 413467 525
770566 831809 468
995579 288580 525
279035 218040 443
281700 599541 470
545970 637601 509
402095 537154 470
256167 150154 443
267407 127004 443
117629 743927 509
449046 298710 449
963463 847311 507
