480639 519083 470
344975 218318 443
309171 412634 449
554553 203473 470
23226 184819 383
511694 430678 444
456736 255577 449
932494 678226 525
209986 658099 509
778814 375012 509
871890 526203 525
710686 163741 509
951361 765788 525
706543 559306 509
438160 261368 449
357698 644221 509
104532 749249 509
643656 647227 323
743793 500028 509
391962 582429 470
440544 992364 525
354448 545304 470
14651 902185 525
243355 418550 449
470290 506538 426
401867 12038 443
114810 660446 509
111821 323734 443
15103 657737 509
411918 237660 449
292219 739964 509
285695 442928 449
793813 951768 525
929187 44846 525
441258 273407 449
762053 604133 509
392837 316932 441
357039 821465 509
449051 706483 509
145984 731665 509
119146 282794 443
761778 345358 509
939906 489772 525
200949 975927 525
69543 841195 525
936135 439557 525
616028 844978 525
915134 819784 525
600112 72015 470
874325 806813 525
32653 211262 383
748987 797912 468
371264 918492 525
509429 824442 509
658697 291257 509
798164 350634 509
35712 328512 443
25673 127405 354
566649 481904 470
316259 221383 443
690482 230678 509
676372 700694 442
148404 922298 525
90773 981213 525
310252 450869 449
679585 563930 509
406416 657405 509
218260 309329 443
200806 477711 449
637262 813102 504
271979 598379 470
555501 575116 421
795776 803318 468
849602 59703 525
650298 494182 509
937027 964612 507
962359 233338 525
495787 872328 525
378564 740712 509
432421 692260 509
886850 755306 525
758086 843036 525
182098 205355 360
450439 567857 470
756214 844130 525
538348 754032 509
825416 154951 509
350082 100254 443
307099 797314 509
772405 384603 509
934250 804293 525
913694 835785 525
17311 608870 470
886759 451466 525
642304 965014 525
41877 738386 509
459905 780401 509
983783 926210 507
737843 803868 468
817071 495322 509
857159 398189 525
310660 548357 470
329506 337349 366
395805 366363 436
705656 779320 468
491183 519260 470
684679 957777 525
317734 824525 509
347304 386443 423
537765 865827 525
728021 574503 509
919705 952221 507
296135 15723 443
999415 519433 525
687108 773834 504
485745 299775 449
489047 800313 509
497157 789233 509
437507 80135 449
299251 699599 509
701795 513371 509
496990 257224 449
693711 364172 509
653610 529739 509
141841 231207 443
144007 994811 525
337214 990540 525
396968 510714 449
511613 568762 470
492587 915161 525
547749 789000 509
55055 665002 509
440529 569010 470
818200 771795 468
307756 30574 443
532253 857690 525
345815 9991 443
87801 714451 509
193581 846955 525
247822 598883 470
327402 402633 441
770755 394918 509
180724 722774 509
406597 973044 525
95 970005 525
832522 758213 468
20414 621021 470
626771 215737 509
324133 892352 525
495731 487252 426
806375 997798 525
285921 429103 449
553053 24151 470
933914 686484 525
175020 415015 449
464090 199581 449
433566 262990 449
594910 639539 509
217861 333356 443
19230 513450 470
642490 765733 504
38050 527692 470
201726 20781 383
846648 706554 525
131103 436863 449
328686 948630 525
545024 545504 315
401416 888981 525
212189 134405 383
142830 213027 383
399240 576771 470
461629 332337 449
798816 441680 509
955479 79820 525
71268 101100 351
596749 918635 525
385393 809445 509
79011 875782 525
466603 170750 449
397612 661449 509
411380 674186 509
10339 737818 509
24577 548888 470
217396 104725 386
428734 810364 509
515799 71413 470
949774 232387 525
304040 160552 443
954128 812593 525
341822 155992 443
190519 588503 470
366894 973561 525
258387 790178 509
961353 214814 525
863690 328602 525
346915 825923 509
723096 220620 509
765143 609004 509
784265 626966 504
275310 324563 389
375286 385495 423
665836 32086 509
490201 364320 449
203526 984874 525
986738 765347 525
151131 284139 443
290888 565380 470
983023 214083 525
225895 631130 509
63059 348426 443
604713 75776 470
227567 381891 443
502469 871390 525
650139 756595 504
701629 412873 509
74905 527498 470
414545 618305 470
226503 673256 509
35188 223165 386
2815 358676 443
665214 468306 509
823010 688168 504
182972 499754 449
782778 260493 509
912933 780670 525
599095 883913 525
543228 616662 452
678542 703822 442
49699 835855 509
190777 697106 509
224800 74718 386
874322 18090 525
651097 635144 416
138929 838245 525
490563 373786 449
