55878 967109 525
622093 102998 470
266867 137463 443
372193 901823 525
136789 361859 443
901435 237824 525
588173 632197 509
522031 504182 470
345626 600070 470
814015 791378 468
568788 124763 470
899251 199393 525
135127 51677 354
69387 277594 443
384965 628524 509
463746 434923 444
704458 754796 504
650825 232136 509
130534 454919 449
197488 71086 383
793552 63123 509
136797 154050 375
581209 824373 509
405876 987421 525
430365 594876 470
114725 582726 470
254107 930329 525
410289 197250 449
394490 84267 443
985081 262924 525
397721 609382 470
545069 962811 525
794129 43295 509
192359 867553 525
724215 54843 509
49351 493136 449
463855 284969 449
467418 941812 525
538580 867771 525
456329 555218 470
110141 202550 383
597780 884298 525
733491 443483 509
92000 357027 443
164353 721950 509
783345 928786 525
444159 791015 509
29228 386741 443
986178 644768 525
721619 565149 509
326229 102074 443
576360 466352 470
184846 608388 470
595537 554800 434
5329 113154 354
658388 462210 509
55916 885819 525
611628 123666 470
402483 341888 441
204007 714902 509
296227 727535 509
886738 510179 525
393277 27990 443
526800 920644 525
73175 888562 525
966757 228052 525
51679 820944 509
503026 569307 470
368426 680791 509
956234 406842 525
622600 257545 470
109949 201232 383
200627 916968 525
510888 471493 426
364084 886768 525
379797 382164 379
789703 108443 509
215234 988425 525
679944 442138 509
551505 879160 525
175254 410710 449
455613 939153 525
151544 271392 443
58014 132439 354
949414 325184 525
646608 241688 509
823141 461457 509
365938 635354 509
949735 29518 525
591607 501794 470
830630 478949 509
178256 373655 443
721361 418358 509
541527 634436 509
109923 124920 349
182567 477646 449
247643 711856 509
978290 792665 525
407030 946283 525
209659 623936 470
982233 952957 458
128656 449185 449
59945 672575 509
570970 98353 470
883840 687608 525
181600 444500 449
370381 591650 470
804832 996349 525
396981 700202 509
670621 121211 509
65265 818063 509
282489 727405 509
396581 403678 387
466890 502334 426
93363 756126 509
475039 406411 449
854205 14197 525
315195 65438 443
55951 857326 525
855401 359950 525
263845 356455 441
635913 861445 525
845553 97145 525
269213 40988 443
236151 440769 449
330080 351126 441
669074 371660 509
482971 763720 509
310098 212706 443
590143 917320 525
961662 962692 383
692703 879215 525
939513 477200 525
416178 372468 449
16208 56721 340
156076 452312 449
823360 230315 509
666163 23243 509
389829 903800 525
827713 780765 468
651517 256486 509
573179 37415 470
78508 691674 509
718963 149720 509
901774 844669 445
796331 71023 509
249794 396605 441
438392 829052 509
921853 870043 476
940914 56766 525
744287 3738 509
539413 925607 525
955467 589603 525
750483 556823 509
296137 8811 443
858037 252721 525
318163 533 443
466485 126089 449
727740 240920 509
453219 253520 449
797018 167377 509
599658 900071 525
978946 371518 525
391879 479721 449
438943 778808 509
229984 787790 509
825999 495186 509
735159 418489 509
564249 623070 447
421205 16909 449
851357 287734 525
355634 593988 470
359222 988441 525
391849 948822 525
934165 502659 525
595268 46439 470
642375 549188 509
207755 154306 383
546867 44426 470
249131 632975 509
522582 446963 470
785619 187469 509
444378 359888 449
929131 192406 525
142268 58430 354
672406 188676 509
637949 554482 509
131157 632206 509
13925 201603 383
54985 266873 443
679251 869454 525
683960 199748 509
685707 260295 509
688059 380581 509
978034 438248 525
802251 79627 509
469513 865146 525
42441 220658 386
598663 582174 434
443028 717448 509
811385 854864 525
573869 596675 434
977368 517821 525
442493 145664 449
297010 150170 443
612347 514399 452
95296 356320 443
281100 729184 509
632212 341694 509
341083 556158 470
247314 448695 449
21551 198196 383
323317 624434 470
498119 508838 426
