861933 96243 525
678041 216470 509
977354 665445 525
546046 228179 470
752312 156325 509
842817 833027 525
409360 522903 470
552316 28562 470
335099 694489 509
373620 564377 470
172630 243152 443
305810 631896 509
434051 401515 449
730965 199451 509
789770 6399 509
282317 417614 449
419178 898175 525
952400 18231 525
491819 917579 525
582797 118176 470
272598 205652 443
134006 237036 443
881113 311318 525
447951 987910 525
452257 836484 509
506954 431144 444
728115 473427 509
957016 372640 525
725246 515908 509
600270 22899 470
649548 965024 525
227736 454771 449
839570 752872 525
967545 862507 507
445597 980054 525
310289 244765 407
789387 660128 504
231797 981163 525
138371 4205 354
792028 488533 509
608934 471957 470
675920 879890 525
192987 489710 449
759742 651258 504
974060 62170 525
540406 274488 470
949690 152742 525
166091 310015 443
607805 726795 509
409939 584158 470
654472 491706 509
37176 381747 443
268621 827187 509
70880 132869 354
723366 330055 509
543697 214155 470
996832 722593 525
273300 345601 389
761997 177685 509
21486 768658 509
858153 607491 525
384792 667023 509
209497 248570 443
270805 448678 449
510358 782962 509
774520 857960 525
907886 961389 507
485503 232085 449
339309 439309 449
523350 882077 525
883851 301233 525
524704 416929 470
126490 650744 509
345954 893438 525
809255 450409 509
921234 985241 507
517868 359933 470
71923 60359 335
986168 559383 525
241567 136645 443
980610 349082 525
587298 235493 470
548695 29514 470
300677 475108 449
687015 137566 509
67965 250805 443
883890 486349 525
390479 216939 443
304470 690930 509
605776 60390 470
814560 245901 509
792932 299010 509
3190 346488 443
995983 557266 525
788109 563608 509
214825 248634 443
617439 101677 470
259791 44046 443
627449 533404 509
310890 798152 509
577942 674186 509
722441 13541 509
209611 817992 509
840307 213951 525
75528 206369 383
5425 369181 443
487627 164919 449
28597 365486 443
303320 820913 509
202529 231542 443
622948 266578 470
898075 390330 525
858088 495813 525
768451 147741 509
417016 130170 449
268752 939041 525
781002 348782 509
819852 386689 509
694995 521018 509
632500 313305 509
458532 702939 509
34404 924641 525
130654 148751 375
588046 87108 470
47359 501081 449
919187 418507 525
654993 40755 509
209901 256150 443
84818 138651 354
46977 877171 525
692412 88781 509
799435 229077 509
360169 541796 470
140412 72841 354
686653 172053 509
340337 352434 441
716408 349557 509
332295 701080 509
440932 709668 509
708982 549749 509
357883 477291 449
749720 959606 525
12114 286414 443
287310 591291 470
591036 496141 470
775374 255410 509
924143 227126 525
443231 24936 449
327868 794218 509
987916 92454 525
702740 716456 504
240206 376572 441
17727 645012 509
106595 754294 509
49296 151880 375
407535 568499 470
630573 389668 509
316915 447216 449
701849 704850 504
666260 156155 509
448797 404587 449
983094 402589 525
15282 954926 525
366653 816996 509
62219 705868 509
391673 319610 441
245635 265405 407
830793 714248 468
643063 559993 509
72424 147329 375
296796 953066 525
541535 412848 470
868003 401074 525
330337 120986 443
942005 451782 525
178116 506918 449
955320 976638 458
350231 863054 525
212853 421271 449
770458 581488 509
687422 577078 509
915176 883471 476
738478 582155 509
298359 548255 470
768240 670766 504
791600 189531 509
576663 1222 470
714230 973961 525
260122 413785 449
63687 984829 525
988119 708515 525
472431 559813 470
341923 551584 470
429665 679297 509
946790 589381 525
211684 13844 383
640217 674980 442
351977 531841 470
204828 562225 470
518840 85710 470
778806 470104 509
187985 233540 443
490004 139537 449
684805 194987 509
468669 836743 509
